{
  "users": [
    {
      "id":1,
      "username": "cemeheeb",
      "email":"Zx123456@gmail.com",
      "password":"Zx123456"
    },
    {
      "id":2,
      "username": "nikonor",
      "email":"Zx1234567@gmail.com",
      "password":"Zx1234567"
    },
    {
      "id":3,
      "username": "tatianich",
      "email":"Zx12345678@gmail.com",
      "password":"Zx12345678"
    }
  ],
  "clients": [
    {
      "id": 1,
      "user_id": 1,
      "name": "Эльдар Ильдусович С.",
      "sex": 1
    },
    {
      "id": 2,
      "user_id": 2,
      "name": "Сергей Витальевич Н.",
      "sex": 1
    },
    {
      "id": 3,
      "user_id": 3,
      "name": "Татьяна Алексеевна Р.",
      "sex": 0
    }
  ],
  "loans": [
    {
      "id": 1,
      "client_id": 1,
      "deposit_id": 1,
      "period_from": "2019-04-06T00:00:00.000Z",
      "period_to": "2022-04-11T00:00:00.000Z",
      "issue_date": "2019-04-06T00:00:00.000Z",
      "amount": "240000.0",
      "rate": "16.5",
      "debt": "0.0"
    },
    {
      "id": 2,
      "client_id": 2,
      "deposit_id": 2,
      "period_from": "2019-04-06T00:00:00.000Z",
      "period_to": "2022-04-11T00:00:00.000Z",
      "issue_date": "2019-04-06T00:00:00.000Z",
      "amount": "240000.0",
      "rate": "16.5",
      "debt": "0.0"
    }
  ],
  "loan_operations": [
    {
      "id": 1,
      "type": "payment",
      "loan_id": 1,
      "date": "2019-06-23T00:00:00.000Z",
      "subtype": "percent-debt",
      "amount": "4366.67"
    },
    {
      "id": 2,
      "type": "payment",
      "loan_id": 1,
      "date": "2019-06-23T00:00:00.000Z",
      "subtype": "loan-debt",
      "amount": "1733.33"
    }
  ],
  "loan_next_payments": [
    {
      "id": 1,
      "loan_id": 2,
      "date": "2019-06-23T00:00:00.000Z"
    },
    {
      "id": 2,
      "loan_id": 2,
      "date": "2019-06-23T00:00:00.000Z"
    },
    {
      "id": 3,
      "loan_id": 2,
      "date": "2019-06-23T00:00:00.000Z"
    },
    {
      "id": 4,
      "loan_id": 2,
      "date": "2019-06-23T00:00:00.000Z"
    },
    {
      "id": 5,
      "loan_id": 2,
      "date": "2019-06-23T00:00:00.000Z"
    },
    {
      "id": 6,
      "loan_id": 2,
      "date": "2019-06-23T00:00:00.000Z"
    },
    {
      "id": 7,
      "loan_id": 2,
      "date": "2019-06-23T00:00:00.000Z"
    }
  ],
  "loan_guaranties": [
    {
      "id": 1,
      "client_id": 1,
      "loan_id": 2
    }
  ],
  "deposits": [
    {
      "id": 1,
      "type": "share",
      "amount": "7400.0",
      "period_from": "2019-04-06T00:00:00.000Z",
      "period_to": "2019-11-02T00:00:00.000Z"
    },
    {
      "id": 1,
      "type": "share",
      "amount": "40000.0",
      "period_from": "",
      "period_to": ""
    }
  ],
  "notifications": [
    {
      "id": 1,
      "type":"birth-day",
      "date": "2019-06-12T00:09:00.000Z",
      "message": "КСП ЭКПА поздравляет Вас с днём рождения!",
      "is_new": false
    }
  ],
  "settings": [
    {
      "id": 1,
      "type": "birth-day",
      "is_enabled": true
    },
    {
      "id": 2,
      "type": "pay-day",
      "is_enabled": true,
      "notify_in_days": 5
    },
    {
      "id": 3,
      "type": "guarantee-pay-day",
      "is_enabled": true,
      "notify_in_days": 5
    }
  ]
}